<?xml version="1.0" encoding="UTF-8" standalone="no"?>
<svg width="6px" height="6px" viewBox="0 0 6 6" version="1.1" xmlns="http://www.w3.org/2000/svg" xmlns:xlink="http://www.w3.org/1999/xlink">
    <g id="Page-1" stroke="none" stroke-width="1" fill="none" fillRule="evenodd">
        <g id="Artboard-3-Copy-2" fill="#334155">
            <polygon id="Rectangle-9" points="5 0 6 0 0 6 0 5"></polygon>
            <polygon id="Rectangle-9-Copy" points="6 5 6 6 5 6"></polygon>
        </g>
    </g>
</svg>