<?xml version="1.0" standalone="no"?>
<!DOCTYPE svg PUBLIC "-//W3C//DTD SVG 20010904//EN"
 "http://www.w3.org/TR/2001/REC-SVG-20010904/DTD/svg10.dtd">
<svg version="1.0" xmlns="http://www.w3.org/2000/svg"
 width="512.000000pt" height="512.000000pt" viewBox="0 0 512.000000 512.000000"
 preserveAspectRatio="xMidYMid meet">
<metadata>
Created by potrace 1.14, written by Peter Selinger 2001-2017
</metadata>
<g transform="translate(0.000000,512.000000) scale(0.100000,-0.100000)"
fill="#000000" stroke="none">
<path d="M2477 5110 c-52 -16 -128 -72 -158 -116 -16 -24 -38 -76 -47 -115
l-18 -71 -22 50 c-51 114 -146 175 -272 176 -140 1 -243 -75 -283 -210 -16
-54 -14 -121 8 -289 2 -16 7 -57 10 -90 11 -118 29 -175 170 -545 79 -206 147
-384 151 -395 3 -11 -5 -5 -20 14 -14 19 -30 37 -34 40 -5 3 -15 15 -23 27 -8
11 -33 43 -56 70 -23 27 -119 143 -213 257 -95 115 -190 225 -212 245 -81 73
-363 271 -408 285 -61 20 -154 15 -211 -12 -180 -85 -228 -302 -103 -466 l27
-36 -58 22 c-234 87 -462 -118 -396 -357 19 -69 65 -120 234 -254 157 -126
241 -177 407 -249 104 -45 177 -78 383 -172 70 -33 131 -59 136 -59 4 0 16 -6
26 -14 16 -11 10 -12 -41 -6 -32 5 -102 11 -154 15 -52 3 -108 8 -125 10 -16
3 -58 7 -93 10 -34 2 -75 7 -90 9 -150 25 -492 26 -532 1 -3 -2 -29 -6 -59
-10 -30 -4 -61 -8 -70 -10 -9 -1 -36 -6 -61 -9 -107 -17 -194 -76 -237 -163
-38 -78 -40 -184 -5 -256 47 -93 119 -147 228 -169 l57 -11 -54 -28 c-200
-101 -237 -347 -75 -492 72 -63 166 -83 306 -64 47 7 102 14 185 22 28 3 61 8
75 10 14 3 41 7 60 10 30 5 331 114 415 150 38 17 171 67 295 111 l95 34 -30
-28 c-33 -30 -328 -276 -465 -386 -135 -109 -164 -141 -292 -314 -145 -198
-162 -233 -162 -327 2 -162 126 -287 289 -289 78 -1 118 12 187 60 l48 34 -21
-52 c-41 -105 -21 -229 51 -311 86 -98 227 -128 342 -74 29 14 62 34 74 44 27
24 259 316 291 366 13 21 62 124 109 230 48 106 94 210 104 232 23 50 67 149
105 237 17 37 34 68 38 68 5 0 6 -3 4 -7 -3 -5 -8 -46 -12 -93 -3 -47 -8 -98
-10 -115 -1 -16 -6 -66 -10 -110 -3 -44 -8 -91 -10 -104 -2 -12 -7 -60 -10
-105 -4 -44 -9 -92 -11 -106 -2 -14 -7 -72 -10 -130 -6 -90 -2 -134 26 -310
36 -224 52 -272 112 -332 60 -60 119 -83 213 -83 87 1 133 18 198 74 41 37 84
121 93 185 l7 50 28 -56 c97 -191 331 -236 476 -91 91 90 106 187 68 433 -2
14 -6 52 -10 85 -3 33 -10 85 -16 115 -9 44 -154 435 -289 780 -25 65 -30 69
126 -120 65 -80 121 -147 124 -150 3 -3 32 -39 65 -80 33 -41 62 -77 65 -80 3
-3 33 -39 67 -80 33 -41 76 -89 94 -106 48 -45 330 -249 378 -273 118 -60 279
-19 362 93 79 108 75 246 -10 363 l-31 43 50 -20 c203 -80 413 57 413 270 0
71 -30 152 -75 200 -37 42 -309 255 -363 287 -40 23 -500 233 -723 330 -23 10
-42 21 -42 26 0 4 3 6 8 4 4 -3 41 -8 82 -11 41 -4 89 -9 105 -11 17 -2 70 -6
119 -10 48 -4 96 -8 106 -10 9 -2 53 -6 96 -10 43 -4 90 -9 104 -11 111 -19
292 -15 427 10 10 2 68 11 128 20 168 26 239 68 297 179 32 60 33 194 1 253
-51 95 -119 146 -222 167 l-60 13 52 24 c65 31 116 82 148 146 33 67 33 188 1
251 -69 134 -192 189 -357 163 -27 -4 -77 -11 -110 -14 -33 -3 -79 -8 -102
-11 -24 -3 -61 -7 -83 -10 -22 -2 -84 -20 -138 -39 -94 -33 -160 -58 -527
-199 -93 -36 -179 -68 -190 -72 -13 -5 -9 1 10 16 17 13 41 34 55 45 14 12
133 110 265 219 132 108 263 219 292 247 71 68 294 377 315 435 35 102 6 227
-72 303 -62 61 -121 85 -210 84 -79 0 -105 -9 -186 -65 l-42 -29 20 53 c28 72
28 167 -1 233 -83 190 -336 238 -479 91 -55 -58 -249 -303 -277 -352 -13 -22
-74 -152 -135 -290 -62 -137 -128 -284 -147 -325 -19 -41 -42 -92 -50 -112 -8
-21 -19 -38 -25 -38 -5 0 -7 3 -5 8 3 4 8 36 11 72 20 201 27 270 32 320 2 30
6 73 9 95 2 22 7 72 11 110 3 39 8 81 10 95 10 82 2 205 -25 380 -37 231 -42
246 -90 308 -54 68 -126 104 -215 108 -39 2 -84 -1 -99 -6z"/>
</g>
</svg>
